<?xml version="1.0" encoding="UTF-8" standalone="no"?>
<svg width="16px" height="22px" viewBox="0 0 16 22" version="1.1" xmlns="http://www.w3.org/2000/svg" xmlns:xlink="http://www.w3.org/1999/xlink">
    <!-- Generator: Sketch 42 (36781) - http://www.bohemiancoding.com/sketch -->
    <title>Layer_1</title>
    <desc>Created with Sketch.</desc>
    <defs></defs>
    <g id="Page-1" stroke="none" stroke-width="1" fill="none" fill-rule="evenodd">
        <g id="Ayana-Jkt-Home" transform="translate(-413.000000, -677.000000)">
            <g id="Path-2-Copy-3" transform="translate(399.000000, 514.000000)">
                <g id="docs-copy" transform="translate(15.000000, 164.000000)">
                    <g id="Layer_1">
                        <path d="M13.977871,5.47792969 L13.977871,18.7115625 C13.977871,19.4232422 13.4217097,19.9999609 12.7365753,19.9999609 L1.26346237,19.9999609 C0.577801075,19.9999609 0.0221666667,19.4232422 0.0221666667,18.7115625 L0.0221666667,1.28839844 C0.0221290323,0.57671875 0.577763441,0 1.26346237,0 L8.70020968,0 L13.977871,5.47792969 Z" id="Shape" stroke="#A2A6AD" stroke-width="0.714285714"></path>
                        <path d="M10.0522727,10 L3.94650392,10 C3.72747166,10 3.54998779,10.1842578 3.54998779,10.4115625 L3.54998779,15.9259766 C3.54998779,16.1532422 3.72747166,16.3375391 3.94650392,16.3375391 L10.0522727,16.3375391 C10.271305,16.3375391 10.4487889,16.1532812 10.4487889,15.9259766 L10.4487889,10.4115625 C10.4487889,10.1842969 10.271305,10 10.0522727,10 Z M4.34302005,12.6459375 L6.60289102,12.6459375 L6.60289102,13.6917578 L4.34302005,13.6917578 L4.34302005,12.6459375 Z M7.39588564,12.6459375 L9.65575661,12.6459375 L9.65575661,13.6917578 L7.39588564,13.6917578 L7.39588564,12.6459375 Z M9.65579424,11.8228516 L7.39592328,11.8228516 L7.39592328,10.823125 L9.65579424,10.823125 L9.65579424,11.8228516 L9.65579424,11.8228516 Z M6.60289102,10.823125 L6.60289102,11.8228125 L4.34302005,11.8228125 L4.34302005,10.823125 L6.60289102,10.823125 Z M4.34302005,14.5148438 L6.60289102,14.5148438 L6.60289102,15.5145313 L4.34302005,15.5145313 L4.34302005,14.5148438 Z M7.39588564,15.5144922 L7.39588564,14.5148047 L9.65575661,14.5148047 L9.65575661,15.5144922 L7.39588564,15.5144922 Z" id="Shape" fill="#28B446" fill-rule="nonzero"></path>
                        <polygon id="Shape" fill="#F4F4F4" points="9.42026882 5.35890625 13.6751815 7.33062744 13.6751815 5.50078369 11.3938548 4.68601562"></polygon>
                        <path d="M13.977871,5.47792969 L9.94150538,5.47792969 C9.25580645,5.47792969 8.70020968,4.90121094 8.70020968,4.18953125 L8.70020968,0 L13.977871,5.47792969 Z" id="Shape" fill="#A2A6AD"></path>
                    </g>
                </g>
            </g>
        </g>
    </g>
</svg>